{
  "iisSettings": {
    "windowsAuthentication": false,
    "anonymousAuthentication": true,
    "iis": {
      "applicationUrl": "http://localhost:81",
      "sslPort": 0
    },
    "iisExpress": {
      "applicationUrl": "http://localhost:26351",
      "sslPort": 44338
    }
  },
  "$schema": "http://json.schemastore.org/launchsettings.json",
  "profiles": {
    "IIS Express": {
      "commandName": "IIS",
      "launchBrowser": true,
      "environmentVariables": {
        "ASPNETCORE_ENVIRONMENT": "Development"
      },
      "ancmHostingModel": "OutOfProcess"
    },
    "Docker": {
      "commandName": "Docker",
      "launchBrowser": true,
      "launchUrl": "{Scheme}://{ServiceHost}:{ServicePort}/swagger",
      "publishAllPorts": true,
      "useSSL": true
    },
    "Internet": {
      "commandName": "IIS",
      "launchBrowser": true,
      "ancmHostingModel": "OutOfProcess",
      "jsWebView2Debugging": true
    },
    "IIS": {
      "commandName": "IIS",
      "launchBrowser": true
    }
  }
}